{
  "meta": {
    "totalCountIsEstimate": false,
    "count": 1,
    "pageCount": 1441,
    "totalCount": 1441,
    "next": "/transactions?senderId=AewxfHQobSc49a4radHp74JZCGP8LRe4xA&limit=1&transform=true&page=2",
    "previous": null,
    "self": "/transactions?senderId=AewxfHQobSc49a4radHp74JZCGP8LRe4xA&limit=1&transform=true&page=1",
    "first": "/transactions?senderId=AewxfHQobSc49a4radHp74JZCGP8LRe4xA&limit=1&transform=true&page=1",
    "last": "/transactions?senderId=AewxfHQobSc49a4radHp74JZCGP8LRe4xA&limit=1&transform=true&page=1441"
  },
  "data": [
    {
      "id": "5222124556517be676fa67fccb07fd581ec2928140a72afdd65259dc3e5db921",
      "blockId": "4366553906931540162",
      "version": 1,
      "type": 0,
      "typeGroup": 1,
      "amount": "3141438227793004",
      "fee": "0",
      "sender": "CewxfHQobSc49a4radHp74JZCGP8LRe4xA",
      "senderPublicKey": "0235d486fea0193cbe77e955ab175b8f6eb9eaf784de689beffbd649989f5d6be3",
      "recipient": "CN7BURQn5oqBRBADeWhmmUMJGQTy5Seey3",
      "signature": "3045022100df12738ec2164ce2d2ba980ab8499dae066149a1019f37ae5b17f28e9cc2aafb02202a0db97f9e012f2a8ed819d2cb02e5d9e63fda01754d6f42308c3cab4bf92e1a",
      "confirmations": 12742876,
      "timestamp": { "epoch": 0, "unix": 1490101200, "human": "2022-04-07T00:32:58.934Z" },
      "nonce": "1441"
    }
  ]
}
